Metai;BVP;C;U1564;Mok
2007;29040,6;23527,5;4,3;530,7
2008;32696,2;27361,6;5,9;681,6
2009;26934,8;24055,2;14,0;828,7
2010;28027,6;23508,9;18,1;785,6
2011;31275,3;25281,2;15,7;774,9
2012;33348,5;26600,8;13,7;751,3
2013;34959,7;27718,6;12,0;761,7
2014;36568,2;28850,2;10,9;778,3
2015;37426,7;29902,4;9,3;804,6
2016;38680,9;31500,2;8,1;848,8
2017;41858;33698,5;7,3;903,7
2018;20884,6;8212,8;6,8;929,4
